{
    "name": "Intelligence Quotient Test",
    "slug": "intelligence-qoutient-test",
    "instruction": "...",
    "duration": 1200,
    "questions": [
	{
		"number": 1,
		"question": "",
		"answer": "a",
		"choices": [
			{
				"legend": "a",
				"answer": "a"
			},
			{
				"legend": "b",
				"answer": "b"
			},
            {
				"legend": "c",
				"answer": "c"
			},
			{
				"legend": "d",
				"answer": "d"
			},
            {
				"legend": "e",
				"answer": "e"
			}
		] 
	},
    {
		"number": 2,
		"question": "",
		"answer": "a",
		"choices": [
			{
				"legend": "a",
				"answer": "a"
			},
			{
				"legend": "b",
				"answer": "b"
			},
            {
				"legend": "c",
				"answer": "c"
			},
			{
				"legend": "d",
				"answer": "d"
			},
            {
				"legend": "e",
				"answer": "e"
			}
		] 
	},
    {
		"number": 3,
		"question": "",
		"answer": "a",
		"choices": [
			{
				"legend": "a",
				"answer": "a"
			},
			{
				"legend": "b",
				"answer": "b"
			},
            {
				"legend": "c",
				"answer": "c"
			},
			{
				"legend": "d",
				"answer": "d"
			},
            {
				"legend": "e",
				"answer": "e"
			}
		] 
	},
    {
		"number": 4,
		"question": "",
		"answer": "a",
		"choices": [
			{
				"legend": "a",
				"answer": "a"
			},
			{
				"legend": "b",
				"answer": "b"
			},
            {
				"legend": "c",
				"answer": "c"
			},
			{
				"legend": "d",
				"answer": "d"
			},
            {
				"legend": "e",
				"answer": "e"
			}
		] 
	},
    {
		"number": 5,
		"question": "",
		"answer": "a",
		"choices": [
			{
				"legend": "a",
				"answer": "a"
			},
			{
				"legend": "b",
				"answer": "b"
			},
            {
				"legend": "c",
				"answer": "c"
			},
			{
				"legend": "d",
				"answer": "d"
			},
            {
				"legend": "e",
				"answer": "e"
			}
		] 
	},
    {
		"number": 6,
		"question": "",
		"answer": "a",
		"choices": [
			{
				"legend": "a",
				"answer": "a"
			},
			{
				"legend": "b",
				"answer": "b"
			},
            {
				"legend": "c",
				"answer": "c"
			},
			{
				"legend": "d",
				"answer": "d"
			},
            {
				"legend": "e",
				"answer": "e"
			}
		] 
	},
    {
		"number": 7,
		"question": "",
		"answer": "a",
		"choices": [
			{
				"legend": "a",
				"answer": "a"
			},
			{
				"legend": "b",
				"answer": "b"
			},
            {
				"legend": "c",
				"answer": "c"
			},
			{
				"legend": "d",
				"answer": "d"
			},
            {
				"legend": "e",
				"answer": "e"
			}
		] 
	},
    {
		"number": 8,
		"question": "",
		"answer": "a",
		"choices": [
			{
				"legend": "a",
				"answer": "a"
			},
			{
				"legend": "b",
				"answer": "b"
			},
            {
				"legend": "c",
				"answer": "c"
			},
			{
				"legend": "d",
				"answer": "d"
			},
            {
				"legend": "e",
				"answer": "e"
			}
		] 
	},
    {
		"number": 9,
		"question": "",
		"answer": "a",
		"choices": [
			{
				"legend": "a",
				"answer": "a"
			},
			{
				"legend": "b",
				"answer": "b"
			},
            {
				"legend": "c",
				"answer": "c"
			},
			{
				"legend": "d",
				"answer": "d"
			},
            {
				"legend": "e",
				"answer": "e"
			}
		] 
	},
    {
		"number": 10,
		"question": "",
		"answer": "a",
		"choices": [
			{
				"legend": "a",
				"answer": "a"
			},
			{
				"legend": "b",
				"answer": "b"
			},
            {
				"legend": "c",
				"answer": "c"
			},
			{
				"legend": "d",
				"answer": "d"
			},
            {
				"legend": "e",
				"answer": "e"
			}
		] 
	},
    {
		"number": 11,
		"question": "",
		"answer": "a",
		"choices": [
			{
				"legend": "a",
				"answer": "a"
			},
			{
				"legend": "b",
				"answer": "b"
			},
            {
				"legend": "c",
				"answer": "c"
			},
			{
				"legend": "d",
				"answer": "d"
			},
            {
				"legend": "e",
				"answer": "e"
			}
		] 
	},
    {
		"number": 12,
		"question": "",
		"answer": "a",
		"choices": [
			{
				"legend": "a",
				"answer": "a"
			},
			{
				"legend": "b",
				"answer": "b"
			},
            {
				"legend": "c",
				"answer": "c"
			},
			{
				"legend": "d",
				"answer": "d"
			},
            {
				"legend": "e",
				"answer": "e"
			}
		] 
	},
    {
		"number": 13,
		"question": "",
		"answer": "a",
		"choices": [
			{
				"legend": "a",
				"answer": "a"
			},
			{
				"legend": "b",
				"answer": "b"
			},
            {
				"legend": "c",
				"answer": "c"
			},
			{
				"legend": "d",
				"answer": "d"
			},
            {
				"legend": "e",
				"answer": "e"
			}
		] 
	},
    {
		"number": 14,
		"question": "",
		"answer": "a",
		"choices": [
			{
				"legend": "a",
				"answer": "a"
			},
			{
				"legend": "b",
				"answer": "b"
			},
            {
				"legend": "c",
				"answer": "c"
			},
			{
				"legend": "d",
				"answer": "d"
			},
            {
				"legend": "e",
				"answer": "e"
			}
		] 
	},
    {
		"number": 15,
		"question": "",
		"answer": "a",
		"choices": [
			{
				"legend": "a",
				"answer": "a"
			},
			{
				"legend": "b",
				"answer": "b"
			},
            {
				"legend": "c",
				"answer": "c"
			},
			{
				"legend": "d",
				"answer": "d"
			},
            {
				"legend": "e",
				"answer": "e"
			}
		] 
	},
    {
		"number": 16,
		"question": "",
		"answer": "a",
		"choices": [
			{
				"legend": "a",
				"answer": "a"
			},
			{
				"legend": "b",
				"answer": "b"
			},
            {
				"legend": "c",
				"answer": "c"
			},
			{
				"legend": "d",
				"answer": "d"
			},
            {
				"legend": "e",
				"answer": "e"
			}
		] 
	},
    {
		"number": 17,
		"question": "",
		"answer": "a",
		"choices": [
			{
				"legend": "a",
				"answer": "a"
			},
			{
				"legend": "b",
				"answer": "b"
			},
            {
				"legend": "c",
				"answer": "c"
			},
			{
				"legend": "d",
				"answer": "d"
			},
            {
				"legend": "e",
				"answer": "e"
			}
		] 
	},
    {
		"number": 18,
		"question": "",
		"answer": "a",
		"choices": [
			{
				"legend": "a",
				"answer": "a"
			},
			{
				"legend": "b",
				"answer": "b"
			},
            {
				"legend": "c",
				"answer": "c"
			},
			{
				"legend": "d",
				"answer": "d"
			},
            {
				"legend": "e",
				"answer": "e"
			}
		] 
	},
    {
		"number": 19,
		"question": "",
		"answer": "a",
		"choices": [
			{
				"legend": "a",
				"answer": "a"
			},
			{
				"legend": "b",
				"answer": "b"
			},
            {
				"legend": "c",
				"answer": "c"
			},
			{
				"legend": "d",
				"answer": "d"
			},
            {
				"legend": "e",
				"answer": "e"
			}
		] 
	},
    {
		"number": 20,
		"question": "",
		"answer": "a",
		"choices": [
			{
				"legend": "a",
				"answer": "a"
			},
			{
				"legend": "b",
				"answer": "b"
			},
            {
				"legend": "c",
				"answer": "c"
			},
			{
				"legend": "d",
				"answer": "d"
			},
            {
				"legend": "e",
				"answer": "e"
			}
		] 
	},
    {
		"number": 21,
		"question": "",
		"answer": "a",
		"choices": [
			{
				"legend": "a",
				"answer": "a"
			},
			{
				"legend": "b",
				"answer": "b"
			},
            {
				"legend": "c",
				"answer": "c"
			},
			{
				"legend": "d",
				"answer": "d"
			},
            {
				"legend": "e",
				"answer": "e"
			}
		] 
	},
    {
		"number": 22,
		"question": "",
		"answer": "a",
		"choices": [
			{
				"legend": "a",
				"answer": "a"
			},
			{
				"legend": "b",
				"answer": "b"
			},
            {
				"legend": "c",
				"answer": "c"
			},
			{
				"legend": "d",
				"answer": "d"
			},
            {
				"legend": "e",
				"answer": "e"
			}
		] 
	},
    {
		"number": 23,
		"question": "",
		"answer": "a",
		"choices": [
			{
				"legend": "a",
				"answer": "a"
			},
			{
				"legend": "b",
				"answer": "b"
			},
            {
				"legend": "c",
				"answer": "c"
			},
			{
				"legend": "d",
				"answer": "d"
			},
            {
				"legend": "e",
				"answer": "e"
			}
		] 
	},
    {
		"number": 24,
		"question": "",
		"answer": "a",
		"choices": [
			{
				"legend": "a",
				"answer": "a"
			},
			{
				"legend": "b",
				"answer": "b"
			},
            {
				"legend": "c",
				"answer": "c"
			},
			{
				"legend": "d",
				"answer": "d"
			},
            {
				"legend": "e",
				"answer": "e"
			}
		] 
	},
    {
		"number": 25,
		"question": "",
		"answer": "a",
		"choices": [
			{
				"legend": "a",
				"answer": "a"
			},
			{
				"legend": "b",
				"answer": "b"
			},
            {
				"legend": "c",
				"answer": "c"
			},
			{
				"legend": "d",
				"answer": "d"
			},
            {
				"legend": "e",
				"answer": "e"
			}
		] 
	},
    {
		"number": 26,
		"question": "",
		"answer": "a",
		"choices": [
			{
				"legend": "a",
				"answer": "a"
			},
			{
				"legend": "b",
				"answer": "b"
			},
            {
				"legend": "c",
				"answer": "c"
			},
			{
				"legend": "d",
				"answer": "d"
			},
            {
				"legend": "e",
				"answer": "e"
			}
		] 
	},
    {
		"number": 27,
		"question": "",
		"answer": "a",
		"choices": [
			{
				"legend": "a",
				"answer": "a"
			},
			{
				"legend": "b",
				"answer": "b"
			},
            {
				"legend": "c",
				"answer": "c"
			},
			{
				"legend": "d",
				"answer": "d"
			},
            {
				"legend": "e",
				"answer": "e"
			}
		] 
	},
    {
		"number": 28,
		"question": "",
		"answer": "a",
		"choices": [
			{
				"legend": "a",
				"answer": "a"
			},
			{
				"legend": "b",
				"answer": "b"
			},
            {
				"legend": "c",
				"answer": "c"
			},
			{
				"legend": "d",
				"answer": "d"
			},
            {
				"legend": "e",
				"answer": "e"
			}
		] 
	},
    {
		"number": 29,
		"question": "",
		"answer": "a",
		"choices": [
			{
				"legend": "a",
				"answer": "a"
			},
			{
				"legend": "b",
				"answer": "b"
			},
            {
				"legend": "c",
				"answer": "c"
			},
			{
				"legend": "d",
				"answer": "d"
			},
            {
				"legend": "e",
				"answer": "e"
			}
		] 
	},
    {
		"number": 30,
		"question": "",
		"answer": "a",
		"choices": [
			{
				"legend": "a",
				"answer": "a"
			},
			{
				"legend": "b",
				"answer": "b"
			},
            {
				"legend": "c",
				"answer": "c"
			},
			{
				"legend": "d",
				"answer": "d"
			},
            {
				"legend": "e",
				"answer": "e"
			}
		] 
	},
    {
		"number": 31,
		"question": "",
		"answer": "a",
		"choices": [
			{
				"legend": "a",
				"answer": "a"
			},
			{
				"legend": "b",
				"answer": "b"
			},
            {
				"legend": "c",
				"answer": "c"
			},
			{
				"legend": "d",
				"answer": "d"
			},
            {
				"legend": "e",
				"answer": "e"
			}
		] 
	},
    {
		"number": 32,
		"question": "",
		"answer": "a",
		"choices": [
			{
				"legend": "a",
				"answer": "a"
			},
			{
				"legend": "b",
				"answer": "b"
			},
            {
				"legend": "c",
				"answer": "c"
			},
			{
				"legend": "d",
				"answer": "d"
			},
            {
				"legend": "e",
				"answer": "e"
			}
		] 
	},
    {
		"number": 33,
		"question": "",
		"answer": "a",
		"choices": [
			{
				"legend": "a",
				"answer": "a"
			},
			{
				"legend": "b",
				"answer": "b"
			},
            {
				"legend": "c",
				"answer": "c"
			},
			{
				"legend": "d",
				"answer": "d"
			},
            {
				"legend": "e",
				"answer": "e"
			}
		] 
	},
    {
		"number": 34,
		"question": "",
		"answer": "a",
		"choices": [
			{
				"legend": "a",
				"answer": "a"
			},
			{
				"legend": "b",
				"answer": "b"
			},
            {
				"legend": "c",
				"answer": "c"
			},
			{
				"legend": "d",
				"answer": "d"
			},
            {
				"legend": "e",
				"answer": "e"
			}
		] 
	},
    {
		"number": 35,
		"question": "",
		"answer": "a",
		"choices": [
			{
				"legend": "a",
				"answer": "a"
			},
			{
				"legend": "b",
				"answer": "b"
			},
            {
				"legend": "c",
				"answer": "c"
			},
			{
				"legend": "d",
				"answer": "d"
			},
            {
				"legend": "e",
				"answer": "e"
			}
		] 
	},
    {
		"number": 36,
		"question": "",
		"answer": "a",
		"choices": [
			{
				"legend": "a",
				"answer": "a"
			},
			{
				"legend": "b",
				"answer": "b"
			},
            {
				"legend": "c",
				"answer": "c"
			},
			{
				"legend": "d",
				"answer": "d"
			},
            {
				"legend": "e",
				"answer": "e"
			}
		] 
	},
    {
		"number": 37,
		"question": "",
		"answer": "a",
		"choices": [
			{
				"legend": "a",
				"answer": "a"
			},
			{
				"legend": "b",
				"answer": "b"
			},
            {
				"legend": "c",
				"answer": "c"
			},
			{
				"legend": "d",
				"answer": "d"
			},
            {
				"legend": "e",
				"answer": "e"
			}
		] 
	},
    {
		"number": 38,
		"question": "",
		"answer": "a",
		"choices": [
			{
				"legend": "a",
				"answer": "a"
			},
			{
				"legend": "b",
				"answer": "b"
			},
            {
				"legend": "c",
				"answer": "c"
			},
			{
				"legend": "d",
				"answer": "d"
			},
            {
				"legend": "e",
				"answer": "e"
			}
		] 
	},
    {
		"number": 39,
		"question": "",
		"answer": "a",
		"choices": [
			{
				"legend": "a",
				"answer": "a"
			},
			{
				"legend": "b",
				"answer": "b"
			},
            {
				"legend": "c",
				"answer": "c"
			},
			{
				"legend": "d",
				"answer": "d"
			},
            {
				"legend": "e",
				"answer": "e"
			}
		] 
	},
    {
		"number": 40,
		"question": "",
		"answer": "a",
		"choices": [
			{
				"legend": "a",
				"answer": "a"
			},
			{
				"legend": "b",
				"answer": "b"
			},
            {
				"legend": "c",
				"answer": "c"
			},
			{
				"legend": "d",
				"answer": "d"
			},
            {
				"legend": "e",
				"answer": "e"
			}
		] 
	},
    {
		"number": 41,
		"question": "",
		"answer": "a",
		"choices": [
			{
				"legend": "a",
				"answer": "a"
			},
			{
				"legend": "b",
				"answer": "b"
			},
            {
				"legend": "c",
				"answer": "c"
			},
			{
				"legend": "d",
				"answer": "d"
			},
            {
				"legend": "e",
				"answer": "e"
			}
		] 
	},
    {
		"number": 42,
		"question": "",
		"answer": "a",
		"choices": [
			{
				"legend": "a",
				"answer": "a"
			},
			{
				"legend": "b",
				"answer": "b"
			},
            {
				"legend": "c",
				"answer": "c"
			},
			{
				"legend": "d",
				"answer": "d"
			},
            {
				"legend": "e",
				"answer": "e"
			}
		] 
	},
    {
		"number": 43,
		"question": "",
		"answer": "a",
		"choices": [
			{
				"legend": "a",
				"answer": "a"
			},
			{
				"legend": "b",
				"answer": "b"
			},
            {
				"legend": "c",
				"answer": "c"
			},
			{
				"legend": "d",
				"answer": "d"
			},
            {
				"legend": "e",
				"answer": "e"
			}
		] 
	},
    {
		"number": 44,
		"question": "",
		"answer": "a",
		"choices": [
			{
				"legend": "a",
				"answer": "a"
			},
			{
				"legend": "b",
				"answer": "b"
			},
            {
				"legend": "c",
				"answer": "c"
			},
			{
				"legend": "d",
				"answer": "d"
			},
            {
				"legend": "e",
				"answer": "e"
			}
		] 
	},
    {
		"number": 45,
		"question": "",
		"answer": "a",
		"choices": [
			{
				"legend": "a",
				"answer": "a"
			},
			{
				"legend": "b",
				"answer": "b"
			},
            {
				"legend": "c",
				"answer": "c"
			},
			{
				"legend": "d",
				"answer": "d"
			},
            {
				"legend": "e",
				"answer": "e"
			}
		] 
	},
    {
		"number": 46,
		"question": "",
		"answer": "a",
		"choices": [
			{
				"legend": "a",
				"answer": "a"
			},
			{
				"legend": "b",
				"answer": "b"
			},
            {
				"legend": "c",
				"answer": "c"
			},
			{
				"legend": "d",
				"answer": "d"
			},
            {
				"legend": "e",
				"answer": "e"
			}
		] 
	},
    {
		"number": 47,
		"question": "",
		"answer": "a",
		"choices": [
			{
				"legend": "a",
				"answer": "a"
			},
			{
				"legend": "b",
				"answer": "b"
			},
            {
				"legend": "c",
				"answer": "c"
			},
			{
				"legend": "d",
				"answer": "d"
			},
            {
				"legend": "e",
				"answer": "e"
			}
		] 
	},
    {
		"number": 48,
		"question": "",
		"answer": "a",
		"choices": [
			{
				"legend": "a",
				"answer": "a"
			},
			{
				"legend": "b",
				"answer": "b"
			},
            {
				"legend": "c",
				"answer": "c"
			},
			{
				"legend": "d",
				"answer": "d"
			},
            {
				"legend": "e",
				"answer": "e"
			}
		] 
	}
    ]
}